
HKEX:1
HKEX:2
HKEX:6
HKEX:11
HKEX:16
HKEX:17
HKEX:19
HKEX:27
HKEX:135
HKEX:175
HKEX:241
HKEX:257
HKEX:268
HKEX:285
HKEX:322
HKEX:384
HKEX:386
HKEX:388
HKEX:390
HKEX:489
HKEX:494
HKEX:656
HKEX:688
HKEX:700
HKEX:728
HKEX:753
HKEX:762
HKEX:763
HKEX:788
HKEX:857
HKEX:880
HKEX:883
HKEX:902
HKEX:914
HKEX:916
HKEX:939
HKEX:941
HKEX:966
HKEX:968
HKEX:981
HKEX:992
HKEX:998
HKEX:1055
HKEX:1088
HKEX:1093
HKEX:1109
HKEX:1113
HKEX:1114
HKEX:1128
HKEX:1171
HKEX:1177
HKEX:1186
HKEX:1211
HKEX:1288
HKEX:1299
HKEX:1336
HKEX:1339
HKEX:1359
HKEX:1398
HKEX:1618
HKEX:1628
HKEX:1800
HKEX:1810
HKEX:1816
HKEX:1898
HKEX:1928
HKEX:1966
HKEX:1988
HKEX:2007
HKEX:2018
HKEX:2020
HKEX:2196
HKEX:2238
HKEX:2269
HKEX:2313
HKEX:2318
HKEX:2319
HKEX:2328
HKEX:2333
HKEX:2338
HKEX:2382
HKEX:2386
HKEX:2388
HKEX:2601
HKEX:2628
HKEX:2688
HKEX:2883
HKEX:2899
HKEX:3323
HKEX:3328
HKEX:3333
HKEX:3690
HKEX:3800
HKEX:3908
HKEX:3968
HKEX:3988
HKEX:3993
HKEX:6030
HKEX:6060
HKEX:6837
HKEX:6862
HKEX:6881
HKEX:6886
